elevator-spinal/simWorkspace/ElevatorController/test/wave.vcd
$version Generated by VerilatedVcd $end
$timescale 1s $end
 $scope module TOP $end
  $var wire 1 2 when_ElevatorController_l102 $end
  $var wire 1 3 when_ElevatorController_l57 $end
  $var wire 1 4 clk $end
  $var wire 1 5 reset $end
  $scope module ElevatorController $end
   $var wire 1 2 when_ElevatorController_l102 $end
   $var wire 1 3 when_ElevatorController_l57 $end
   $var wire 1 4 clk $end
   $var wire 1 5 reset $end
   $var wire 3 @ State_idle [2:0] $end
   $var wire 3 A State_movingUp [2:0] $end
   $var wire 3 B State_movingDown [2:0] $end
   $var wire 3 C State_doorOpening [2:0] $end
   $var wire 3 D State_doorOpenWait [2:0] $end
   $var wire 3 E State_doorClosing [2:0] $end
   $var wire 3 F State_emergency [2:0] $end
   $var wire 3 # switch_ElevatorController_l61 [2:0] $end
   $var wire 1 $ when_ElevatorController_l65 $end
   $var wire 1 % when_ElevatorController_l64 $end
   $var wire 1 & when_ElevatorController_l69 $end
   $var wire 1 6 when_ElevatorController_l44 $end
   $var wire 1 7 when_ElevatorController_l44_1 $end
   $var wire 1 8 when_ElevatorController_l44_2 $end
   $var wire 1 9 when_ElevatorController_l44_3 $end
   $var wire 1 : when_ElevatorController_l51 $end
   $var wire 1 ; when_ElevatorController_l51_1 $end
   $var wire 1 < when_ElevatorController_l51_2 $end
   $var wire 1 = when_ElevatorController_l51_3 $end
   $var wire 1 ' when_ElevatorController_l71 $end
   $var wire 1 ( when_ElevatorController_l71_1 $end
   $var wire 1 ) when_ElevatorController_l71_2 $end
   $var wire 1 G when_ElevatorController_l71_3 $end
   $var wire 1 * when_ElevatorController_l78 $end
   $var wire 1 + when_ElevatorController_l78_1 $end
   $var wire 1 , when_ElevatorController_l78_2 $end
   $var wire 1 G when_ElevatorController_l78_3 $end
   $var wire 1 - when_ElevatorController_l88 $end
   $var wire 1 - when_ElevatorController_l95 $end
   $var wire 1 . when_ElevatorController_l110 $end
   $var wire 1 > when_ElevatorController_l116 $end
   $var wire 1 ? when_ElevatorController_l122 $end
   $var wire 96 / switch_ElevatorController_l61_string [95:0] $end
  $upscope $end
 $upscope $end
$enddefinitions $end


#0
b000 #
0$
0%
0&
0'
0(
0)
0*
0+
0,
1-
0.
b011010010110010001101100011001010010000000100000001000000010000000100000001000000010000000100000 /
02
03
04
15
06
07
08
09
1:
0;
0<
0=
1>
1?
b000 @
b001 A
b010 B
b011 C
b100 D
b101 E
b110 F
0G
#160
05
#170
14
#175
04
#180
14
#185
04
#190
14
#195
04
#200
14
#205
04
#210
14
19
#215
04
#220
1%
1&
1'
14
#225
04
#230
b001 #
0-
b011011010110111101110110011010010110111001100111010101010111000000100000001000000010000000100000 /
14
#235
04
#240
14
09
0:
1=
#245
04
#250
1$
0&
0'
1-
14
#255
04
#260
b011 #
0$
0%
b011001000110111101101111011100100100111101110000011001010110111001101001011011100110011100100000 /
14
#265
04
#270
12
14
0>
0?
#275
04
#280
b100 #
b011001000110111101101111011100100100111101110000011001010110111001010111011000010110100101110100 /
14
