mxfp4_amaranth_project/tb/waveform_demo.vcd
$comment Generated by Amaranth $end
$date 2026-04-13 08:43:45.886882 $end
$timescale 1 fs $end
$scope module bench $end
$scope module top $end
$var wire 4 ! a $end
$var wire 4 " vecA_0 $end
$var wire 4 # b $end
$var wire 4 $ vecB_0 $end
$var wire 4 % a$4 $end
$var wire 4 & vecA_1 $end
$var wire 4 ' b$6 $end
$var wire 4 ( vecB_1 $end
$var wire 4 ) a$8 $end
$var wire 4 * vecA_2 $end
$var wire 4 + b$10 $end
$var wire 4 , vecB_2 $end
$var wire 4 - a$12 $end
$var wire 4 . vecA_3 $end
$var wire 4 / b$14 $end
$var wire 4 0 vecB_3 $end
$var wire 1 1 sign_0 $end
$var wire 1 2 sign $end
$var wire 3 3 exp_0 $end
$var wire 3 4 exp_out $end
$var wire 4 5 mant_0 $end
$var wire 4 6 mant_out $end
$var wire 1 7 sign_1 $end
$var wire 1 8 sign$23 $end
$var wire 3 9 exp_1 $end
$var wire 3 : exp_out$25 $end
$var wire 4 ; mant_1 $end
$var wire 4 < mant_out$27 $end
$var wire 1 = sign_2 $end
$var wire 1 > sign$29 $end
$var wire 3 ? exp_2 $end
$var wire 3 @ exp_out$31 $end
$var wire 4 A mant_2 $end
$var wire 4 B mant_out$33 $end
$var wire 1 C sign_3 $end
$var wire 1 D sign$35 $end
$var wire 3 E exp_3 $end
$var wire 3 F exp_out$37 $end
$var wire 4 G mant_3 $end
$var wire 4 H mant_out$39 $end
$var wire 8 I in_0 $end
$var wire 8 J aligned_0 $end
$var wire 8 K in_1 $end
$var wire 8 L aligned_1 $end
$var wire 8 M in_2 $end
$var wire 8 N aligned_2 $end
$var wire 8 O in_3 $end
$var wire 8 P aligned_3 $end
$var wire 10 Q tree_sum $end
$var wire 10 R result $end
$var wire 8 S scale_a $end
$var wire 8 T scaleA $end
$var wire 8 U scale_b $end
$var wire 8 V scaleB $end
$var wire 10 W dotProduct $end
$var wire 10 X dot_product $end
$var wire 9 Y combinedScale $end
$var wire 9 Z combined_scale $end
$scope module adder_tree $end
$var wire 8 I in_0 $end
$var wire 8 K in_1 $end
$var wire 8 M in_2 $end
$var wire 8 O in_3 $end
$var wire 10 R result $end
$var wire 2 %! fill_0 $end
$var wire 10 &! ext_0 $end
$var wire 2 '! fill_1 $end
$var wire 10 (! ext_1 $end
$var wire 2 )! fill_2 $end
$var wire 10 *! ext_2 $end
$var wire 2 +! fill_3 $end
$var wire 10 ,! ext_3 $end
$var wire 10 -! sum_l0_p0 $end
$var wire 10 .! sum_l0_p1 $end
$var wire 10 /! sum_l1_p0 $end
$upscope $end
$scope module aligner $end
$var wire 1 1 sign_0 $end
$var wire 3 3 exp_0 $end
$var wire 4 5 mant_0 $end
$var wire 1 7 sign_1 $end
$var wire 3 9 exp_1 $end
$var wire 4 ; mant_1 $end
$var wire 1 = sign_2 $end
$var wire 3 ? exp_2 $end
$var wire 4 A mant_2 $end
$var wire 1 C sign_3 $end
$var wire 3 E exp_3 $end
$var wire 4 G mant_3 $end
$var wire 8 J aligned_0 $end
$var wire 8 L aligned_1 $end
$var wire 8 N aligned_2 $end
$var wire 8 P aligned_3 $end
$var wire 3 o max_1 $end
$var wire 3 p max_2 $end
$var wire 3 q max_3 $end
$var wire 3 r exp_max $end
$var wire 3 s shift_0 $end
$var wire 8 t mant_ext_0 $end
$var wire 8 u shifted_0 $end
$var wire 8 v negated_0 $end
$var wire 3 w shift_1 $end
$var wire 8 x mant_ext_1 $end
$var wire 8 y shifted_1 $end
$var wire 8 z negated_1 $end
$var wire 3 { shift_2 $end
$var wire 8 | mant_ext_2 $end
$var wire 8 } shifted_2 $end
$var wire 8 ~ negated_2 $end
$var wire 3 !! shift_3 $end
$var wire 8 "! mant_ext_3 $end
$var wire 8 #! shifted_3 $end
$var wire 8 $! negated_3 $end
$upscope $end
$scope module integrator $end
$var wire 10 Q tree_sum $end
$var wire 8 S scale_a $end
$var wire 8 U scale_b $end
$var wire 10 X dot_product $end
$var wire 9 Z combined_scale $end
$var wire 9 0! scale_a_9 $end
$var wire 9 1! scale_b_9 $end
$upscope $end
$scope module mul_0 $end
$var wire 4 ! a $end
$var wire 4 # b $end
$var wire 1 2 sign $end
$var wire 3 4 exp_out $end
$var wire 4 6 mant_out $end
$var wire 2 [ mant_eff_a $end
$var wire 2 \ mant_eff_b $end
$var wire 3 ] exp_a_3 $end
$var wire 3 ^ exp_b_3 $end
$var wire 4 _ product $end
$upscope $end
$scope module mul_1 $end
$var wire 4 % a $end
$var wire 4 ' b $end
$var wire 1 8 sign $end
$var wire 3 : exp_out $end
$var wire 4 < mant_out $end
$var wire 2 ` mant_eff_a $end
$var wire 2 a mant_eff_b $end
$var wire 3 b exp_a_3 $end
$var wire 3 c exp_b_3 $end
$var wire 4 d product $end
$upscope $end
$scope module mul_2 $end
$var wire 4 ) a $end
$var wire 4 + b $end
$var wire 1 > sign $end
$var wire 3 @ exp_out $end
$var wire 4 B mant_out $end
$var wire 2 e mant_eff_a $end
$var wire 2 f mant_eff_b $end
$var wire 3 g exp_a_3 $end
$var wire 3 h exp_b_3 $end
$var wire 4 i product $end
$upscope $end
$scope module mul_3 $end
$var wire 4 - a $end
$var wire 4 / b $end
$var wire 1 D sign $end
$var wire 3 F exp_out $end
$var wire 4 H mant_out $end
$var wire 2 j mant_eff_a $end
$var wire 2 k mant_eff_b $end
$var wire 3 l exp_a_3 $end
$var wire 3 m exp_b_3 $end
$var wire 4 n product $end
$upscope $end
$upscope $end
$upscope $end
$enddefinitions $end
#0
$dumpvars
b10 !
b10 "
b10 #
b10 $
b10 %
b10 &
b10 '
b10 (
b10 )
b10 *
b10 +
b10 ,
b10 -
b10 .
b10 /
b10 0
01
02
b10 3
b10 4
b100 5
b100 6
07
08
b10 9
b10 :
b100 ;
b100 <
0=
0>
b10 ?
b10 @
b100 A
b100 B
0C
0D
b10 E
b10 F
b100 G
b100 H
b1000000 I
b1000000 J
b1000000 K
b1000000 L
b1000000 M
b1000000 N
b1000000 O
b1000000 P
b100000000 Q
b100000000 R
b1111111 S
b1111111 T
b1111111 U
b1111111 V
b100000000 W
b100000000 X
b11111110 Y
b11111110 Z
b10 [
b10 \
b1 ]
b1 ^
b100 _
b10 `
b10 a
b1 b
b1 c
b100 d
b10 e
b10 f
b1 g
b1 h
b100 i
b10 j
b10 k
b1 l
b1 m
b100 n
b10 o
b10 p
b10 q
b10 r
b0 s
b1000000 t
b1000000 u
b11000000 v
b0 w
b1000000 x
b1000000 y
b11000000 z
b0 {
b1000000 |
b1000000 }
b11000000 ~
b0 !!
b1000000 "!
b1000000 #!
b11000000 $!
b0 %!
b1000000 &!
b0 '!
b1000000 (!
b0 )!
b1000000 *!
b0 +!
b1000000 ,!
b10000000 -!
b10000000 .!
b100000000 /!
b1111111 0!
b1111111 1!
$end
#25000000
b11 "
b11 &
b11 *
b11 .
b11 !
b11 )
b11 -
b11 %
b11 [
b11 `
b11 e
b11 j
b110 _
b110 d
b110 n
b110 i
b110 6
b110 H
b110 B
b110 <
b110 ;
b110 5
b110 G
b110 A
b1100000 t
b1100000 |
b1100000 x
b1100000 "!
b1100000 }
b1100000 #!
b1100000 u
b1100000 y
b10100000 $!
b1100000 L
b10100000 v
b1100000 N
b10100000 ~
b1100000 P
b10100000 z
b1100000 J
b1100000 K
b1100000 O
b1100000 I
b1100000 M
b1100000 ,!
b1100000 &!
b1100000 (!
b1100000 *!
b11000000 -!
b11000000 .!
b110000000 /!
b110000000 R
b110000000 Q
b110000000 X
b110000000 W
#55000000
b100 ,
b100 &
b100 .
b100 (
b100 "
b100 0
b100 *
b100 $
b100 )
b100 +
b100 -
b100 /
b100 !
b100 #
b100 '
b100 %
b10 e
b10 `
b10 ]
b10 h
b10 m
b10 g
b10 c
b10 [
b10 b
b10 ^
b10 j
b10 l
b100 _
b100 F
b100 @
b100 :
b100 4
b100 d
b100 n
b100 i
b100 ?
b100 9
b100 H
b100 B
b100 <
b100 E
b100 6
b100 3
b100 o
b100 5
b100 G
b100 q
b100 A
b110 w
b100 p
b110 !!
b100 ;
b110 s
b110 {
b1000000 t
b1000000 |
b1 u
b1 }
b1 y
b1000000 x
b100 r
b1000000 "!
b1 #!
b11111111 $!
b1 L
b11111111 v
b1 N
b11111111 ~
b0 w
b1 P
b0 !!
b11111111 z
b0 s
b1 J
b0 {
b1 K
b1 M
b1000000 u
b1000000 }
b1 O
b1000000 y
b1 I
b1000000 #!
b11000000 $!
b1000000 L
b11000000 v
b1 &!
b1000000 N
b11000000 ~
b1000000 P
b1 (!
b1 ,!
b11000000 z
b1000000 J
b1 *!
b1000000 K
b1000000 M
b10 -!
b1000000 O
b10 .!
b1000000 I
b1000000 &!
b100 /!
b1000000 (!
b1000000 ,!
b1000000 *!
b10000000 -!
b10000000 .!
b100 R
b100000000 /!
b100 Q
b100 X
b100000000 R
b100 W
b100000000 Q
b100000000 X
b100000000 W
#85000000
b1010 ,
b10 &
b10 .
b1010 (
b10 "
b1010 0
b10 *
b1010 $
b10 )
b1010 +
b10 -
b1010 /
b10 !
b1010 #
b1010 '
b10 %
1>
18
12
b1 ]
b1 h
b1 m
b1 g
b1 c
b1 b
b1 ^
b1 l
1D
1=
17
b10 F
b10 @
b10 :
b10 4
1C
11
b11000000 L
b10 ?
b11000000 N
b10 9
b11000000 P
b10 E
b11000000 J
b10 3
b11000000 K
b10 o
b11000000 M
b11000000 I
b11000000 O
b10 w
b10 !!
b10 s
b10 {
b11 +!
b10000 u
b11 %!
b10000 }
b11000000 &!
b10000 y
b11 '!
b10 p
b11000000 (!
b11000000 ,!
b11 )!
b10000 #!
b11000000 *!
b11110000 $!
b10 q
b110000000 -!
b11110000 v
b1111000000 &!
b11110000 ~
b110000000 .!
b1111000000 (!
b1111000000 ,!
b11110000 z
b1111000000 *!
b11110000 L
b1110000000 -!
b11110000 N
b1110000000 .!
b11110000 P
b1100000000 /!
b10 r
b11110000 J
b11110000 K
b11110000 M
b11110000 I
b11110000 O
b0 w
b0 !!
b1100000000 R
b0 s
b0 {
b1000000 u
b1000000 }
b1111110000 &!
b1000000 y
b1100000000 Q
b1111110000 (!
b1111110000 ,!
b1000000 #!
b1111110000 *!
b11000000 $!
b1111100000 -!
b11000000 v
b1100000000 X
b11000000 ~
b1111100000 .!
b11000000 z
b11000000 L
b11000000 N
b11000000 P
b1111000000 /!
b11000000 J
b1100000000 W
b11000000 K
b11000000 M
b11000000 O
b1111000000 R
b11000000 I
b1111000000 &!
b1111000000 Q
b1111000000 (!
b1111000000 ,!
b1111000000 *!
b1110000000 -!
b1110000000 .!
b1111000000 X
b1100000000 /!
b1111000000 W
b1100000000 R
b1100000000 Q
b1100000000 X
b1100000000 W
#115000000
b10 ,
b0 &
b0 .
b10 (
b0 "
b10 0
b0 *
b10 $
b0 )
b10 +
b0 -
b10 /
b0 !
b10 #
b10 '
b0 %
0>
08
02
b0 e
b0 `
b0 ]
b0 g
b0 [
b0 b
b0 j
b0 l
0D
b0 _
0=
07
b1 F
b1 @
b1 :
b1 4
0C
01
b0 d
b0 n
b0 i
b1000000 L
b1 ?
b1000000 N
b1 9
b1000000 P
b0 H
b0 B
b0 <
b1 E
b0 6
b1000000 J
b1 3
b1000000 K
b1 o
b0 5
b1000000 M
b0 G
b1000000 I
b1000000 O
b0 A
b1 w
b1 !!
b0 ;
b1 s
b1 {
b0 t
b0 |
b0 +!
b100000 u
b0 %!
b100000 }
b1101000000 &!
b100000 y
b0 '!
b1 p
b0 x
b1101000000 (!
b0 "!
b1101000000 ,!
b0 )!
b100000 #!
b1101000000 *!
b11100000 $!
b1000000 &!
b1000000 (!
b1000000 ,!
b1000000 *!
b1 q
b1010000000 -!
b0 y
b1010000000 .!
b0 u
b11100000 v
b11100000 z
b100000 J
b100000 L
b0 }
b100000 N
b11100000 ~
b100000 P
b0 #!
b100000 K
b0 $!
b100000 M
b0 L
b10000000 -!
b100000 O
b0 v
b0 N
b0 ~
b10000000 .!
b0 P
b100000000 /!
b1 r
b0 z
b100000 I
b0 J
b0 K
b0 M
b0 I
b0 O
b100000 &!
b0 w
b0 !!
b100000 (!
b100000000 R
b100000 ,!
b0 s
b0 {
b100000 *!
b1000000 -!
b0 &!
b1000000 .!
b100000000 Q
b0 (!
b0 ,!
b0 *!
b0 -!
b10000000 /!
b0 .!
b100000000 X
b100000000 W
b0 /!
b10000000 R
b0 R
b10000000 Q
b10000000 X
b0 Q
b0 X
b10000000 W
b0 W
#145000000
b111 ,
b111 &
b111 .
b111 (
b111 "
b111 0
b111 *
b111 $
b111 )
b111 +
b111 -
b111 /
b111 !
b111 #
b111 '
b111 %
b11 k
b11 \
b11 f
b11 e
b11 a
b11 `
b11 ]
b11 h
b11 m
b11 g
b11 c
b11 [
b11 b
b11 ^
b11 j
b11 l
b1001 _
b110 F
b110 @
b110 :
b110 4
b1001 d
b1001 n
b1001 i
b110 ?
b110 9
b1001 H
b1001 B
b1001 <
b110 E
b1001 6
b110 3
b110 o
b1001 5
b1001 G
b110 q
b1001 A
b11 w
b110 p
b11 !!
b1001 ;
b11 s
b11 {
b10010000 t
b10010000 |
b10010000 x
b110 r
b10010000 "!
b10010 u
b10010 }
b10010 y
b0 w
b0 !!
b0 s
b10010 #!
b0 {
b11101110 $!
b10010000 u
b10010 L
b10010000 }
b11101110 v
b10010000 y
b11101110 ~
b10010 N
b10010 P
b11101110 z
b10010000 #!
b10010 J
b10010 K
b1110000 $!
b10010 M
b10010000 L
b10010 O
b1110000 v
b10010000 N
b1110000 ~
b10010000 P
b1110000 z
b10010 I
b10010000 J
b10010000 K
b10010000 M
b10010000 O
b10010 &!
b10010 (!
b10010 ,!
b10010000 I
b10010 *!
b11 +!
b11 %!
b100100 -!
b10010000 &!
b100100 .!
b11 '!
b10010000 (!
b10010000 ,!
b11 )!
b10010000 *!
b100100000 -!
b1110010000 &!
b100100000 .!
b1001000 /!
b1110010000 (!
b1110010000 ,!
b1110010000 *!
b1100100000 -!
b1001000000 /!
b1100100000 .!
b1001000 R
b1001000000 R
b1001000 Q
b1001000 X
b1001000000 Q
b1001000000 X
b1001000 W
b1001000000 W
#175000000
b10 0
b1111101 V
b10 ,
b10 &
b10 .
b10 (
b10 "
b10000010 T
b10 *
b10 $
b10 )
b10 +
b10 -
b10 /
b10 !
b10000010 S
b10 #
b1111101 U
b10 '
b10 %
b10 k
b1111101 1!
b10 \
b10 f
b10 e
b10 a
b10 `
b1 ]
b1 h
b1 m
b1 g
b1 c
b10 [
b1 b
b1 ^
b10 j
b1 l
b10000010 0!
b100 _
b10 F
b10 @
b10 :
b10 4
b11111111 Z
b100 d
b100 n
b100 i
b11111111 Y
b10 ?
b10 9
b100 H
b100 B
b100 <
b10 E
b100 6
b10 3
b10 o
b100 5
b100 G
b100 w
b100 A
b100 !!
b100 ;
b100 s
b100 {
b1000000 t
b1000000 |
b1001 u
b1001 }
b1001 y
b10 p
b1000000 x
b1000000 "!
b1001 #!
b11110111 $!
b100 u
b1001 L
b100 }
b10 q
b11110111 v
b100 y
b11110111 ~
b1001 N
b1001 P
b11110111 z
b100 #!
b1001 J
b1001 K
b11111100 $!
b1001 M
b100 L
b1001 O
b11111100 v
b100 N
b11111100 ~
b100 P
b10 r
b11111100 z
b1001 I
b100 J
b100 K
b0 +!
b100 M
b0 %!
b100 I
b100 O
b1100001001 &!
b0 w
b0 '!
b0 !!
b1100001001 (!
b1100001001 ,!
b0 )!
b0 s
b0 {
b1100001001 *!
b1000000 u
b1000000 }
b1000010010 -!
b100 &!
b1000000 y
b1000010010 .!
b100 (!
b100 ,!
b1000000 #!
b100 *!
b11000000 $!
b1000000 L
b1000 -!
b11000000 v
b1000000 N
b11000000 ~
b1000 .!
b1000000 P
b100100 /!
b11000000 z
b1000000 J
b1000000 K
b1000000 M
b1000000 O
b10000 /!
b100100 R
b1000000 I
b1000000 &!
b100100 Q
b1000000 (!
b10000 R
b1000000 ,!
b1000000 *!
b10000000 -!
b10000000 .!
b100100 X
b10000 Q
b10000 X
b100000000 /!
b100100 W
b10000 W
b100000000 R
b100000000 Q
b100000000 X
b100000000 W
#205000000
b11 0
b1111111 V
b11 ,
b11 &
b11 .
b11 (
b11 "
b1111111 T
b11 *
b11 $
b11 )
b11 +
b11 -
b11 /
b11 !
b1111111 S
b11 #
b1111111 U
b11 '
b11 %
b11 k
b1111111 1!
b11 \
b11 f
b11 e
b11 a
b11 `
b11 [
b11 j
b1111111 0!
b1001 _
b11111110 Z
b1001 d
b1001 n
b1001 i
b11111110 Y
b1001 H
b1001 B
b1001 <
b1001 6
b1001 ;
b1001 5
b1001 G
b1001 A
b10010000 t
b10010000 |
b10010000 x
b10010000 "!
b10010000 }
b10010000 #!
b10010000 u
b10010000 y
b1110000 $!
b10010000 L
b1110000 v
b10010000 N
b1110000 ~
b10010000 P
b1110000 z
b10010000 J
b10010000 K
b10010000 O
b10010000 I
b10010000 M
b11 +!
b11 %!
b10010000 &!
b11 '!
b10010000 (!
b10010000 ,!
b11 )!
b10010000 *!
b100100000 -!
b1110010000 &!
b100100000 .!
b1110010000 (!
b1110010000 ,!
b1110010000 *!
b1100100000 -!
b1001000000 /!
b1100100000 .!
b1001000000 R
b1001000000 Q
b1001000000 X
b1001000000 W
