elevator-amaranth/elevator.vcd
$comment Generated by Amaranth $end
$date 2026-03-04 10:46:06.499964 $end
$timescale 1 fs $end
$scope module bench $end
$scope module top $end
$var wire 1 ! clk $end
$var wire 1 " rst $end
$var wire 4 # current_floor_sensor $end
$var wire 2 $ current_floor $end
$var wire 4 % floor_request $end
$var wire 4 & request_queue $end
$var string 1 ' fsm_state $end
$var wire 1 ( emergency $end
$var wire 2 ) target_floor $end
$var wire 1 * door_sensor $end
$var wire 24 + door_timer $end
$var wire 2 , current_floor$11 $end
$var wire 3 - current_state $end
$var wire 1 . motor_up $end
$var wire 1 / motor_down $end
$var wire 1 0 door_open $end
$var wire 1 1 door_close $end
$upscope $end
$upscope $end
$enddefinitions $end
#0
$dumpvars
0!
0"
b1 #
b0 $
b0 %
b0 &
sIDLE/0 '
0(
b0 )
0*
b0 +
b0 ,
b0 -
0.
0/
00
01
$end
#500000000
1!
#1000000000
0!
#1500000000
1!
#2000000000
0!
#2500000000
1!
b1000 %
#3000000000
0!
#3500000000
1!
b1000 &
#4000000000
0!
#4500000000
1!
sMOVING_UP/3 '
b11 )
b1 -
1.
b0 %
#5000000000
0!
#5500000000
1!
b1000 #
#6000000000
0!
#6500000000
1!
b11 $
b11 ,
#7000000000
0!
#7500000000
1!
sDOOR_OPENING/2 '
b0 &
b11 -
0.
10
1*
#8000000000
0!
#8500000000
1!
sDOOR_OPEN_WAIT/5 '
b100 -
#9000000000
0!
#9500000000
1!
b1 +
#10000000000
0!
#10500000000
1!
b10 +
#11000000000
0!
#11500000000
1!
b11 +
#12000000000
0!
#12500000000
1!
b100 +
#13000000000
0!
#13500000000
1!
b101 +
#14000000000
0!
#14500000000
1!
b110 +
#15000000000
0!
#15500000000
1!
b111 +
#16000000000
0!
#16500000000
1!
b1000 +
#17000000000
0!
#17500000000
1!
b1001 +
#18000000000
0!
#18500000000
1!
b1010 +
#19000000000
0!
#19500000000
1!
b1011 +
#20000000000
0!
#20500000000
1!
b1100 +
#21000000000
0!
#21500000000
1!
b1101 +
#22000000000
0!
#22500000000
1!
b1110 +
#23000000000
0!
#23500000000
1!
b1111 +
#24000000000
0!
#24500000000
1!
b10000 +
#25000000000
0!
#25500000000
1!
b10001 +
#26000000000
0!
#26500000000
1!
b10010 +
#27000000000
0!
#27500000000
1!
b10011 +
#28000000000
0!
#28500000000
1!
b10100 +
#29000000000
0!
#29500000000
1!
b10101 +
#30000000000
0!
#30500000000
1!
b10110 +
#31000000000
0!
#31500000000
1!
b10111 +
#32000000000
0!
#32500000000
1!
b11000 +
#33000000000
0!
#33500000000
1!
b11001 +
#34000000000
0!
#34500000000
1!
b11010 +
#35000000000
0!
#35500000000
1!
b11011 +
#36000000000
0!
#36500000000
1!
b11100 +
#37000000000
0!
#37500000000
1!
b11101 +
#38000000000
0!
#38500000000
1!
b11110 +
#39000000000
0!
#39500000000
1!
b11111 +
#40000000000
0!
#40500000000
1!
b100000 +
#41000000000
0!
#41500000000
1!
b100001 +
#42000000000
0!
#42500000000
1!
b100010 +
#43000000000
0!
#43500000000
1!
b100011 +
#44000000000
0!
#44500000000
1!
b100100 +
#45000000000
0!
#45500000000
1!
b100101 +
#46000000000
0!
#46500000000
1!
b100110 +
#47000000000
0!
#47500000000
1!
b100111 +
#48000000000
0!
#48500000000
1!
b101000 +
#49000000000
0!
#49500000000
1!
b101001 +
#50000000000
0!
#50500000000
1!
b101010 +
#51000000000
0!
#51500000000
1!
b101011 +
#52000000000
0!
#52500000000
1!
b101100 +
#53000000000
0!
#53500000000
1!
b101101 +
#54000000000
0!
#54500000000
1!
b101110 +
#55000000000
0!
#55500000000
1!
b101111 +
#56000000000
0!
#56500000000
1!
b110000 +
#57000000000
0!
#57500000000
1!
b110001 +
#58000000000
0!
#58500000000
1!
b110010 +
#59000000000
0!
#59500000000
1!
b110011 +
sDOOR_CLOSING/6 '
b101 -
00
11
#60000000000
0!
#60500000000
1!
#61000000000
0!
#61500000000
1!
#62000000000
0!
#62500000000
1!
#63000000000
0!
#63500000000
1!
#64000000000
0!
#64500000000
1!
#65000000000
0!
#65500000000
1!
#66000000000
0!
#66500000000
1!
#67000000000
0!
#67500000000
1!
#68000000000
0!
#68500000000
1!
#69000000000
0!
#69500000000
1!
0*
#70000000000
0!
#70500000000
1!
sIDLE/0 '
b0 -
01
#71000000000
0!
#71500000000
1!
#72000000000
0!
#72500000000
1!
b10 %
#73000000000
0!
#73500000000
1!
b10 &
#74000000000
0!
#74500000000
1!
sMOVING_DOWN/4 '
b1 )
b10 -
1/
b0 %
#75000000000
0!
#75500000000
1!
b10 #
#76000000000
0!
#76500000000
1!
b1 $
b1 ,
#77000000000
0!
#77500000000
1!
sDOOR_OPENING/2 '
b0 &
b11 -
10
0/
1*
#78000000000
0!
#78500000000
1!
b0 +
sDOOR_OPEN_WAIT/5 '
b100 -
#79000000000
0!
#79500000000
1!
b1 +
#80000000000
0!
#80500000000
1!
b10 +
#81000000000
0!
#81500000000
1!
b11 +
#82000000000
0!
#82500000000
1!
b100 +
#83000000000
0!
#83500000000
1!
b101 +
#84000000000
0!
#84500000000
1!
b110 +
#85000000000
0!
#85500000000
1!
b111 +
#86000000000
0!
#86500000000
1!
b1000 +
#87000000000
0!
#87500000000
1!
b1001 +
#88000000000
0!
#88500000000
1!
b1010 +
#89000000000
0!
#89500000000
1!
b1011 +
#90000000000
0!
#90500000000
1!
b1100 +
#91000000000
0!
#91500000000
1!
b1101 +
#92000000000
0!
#92500000000
1!
b1110 +
#93000000000
0!
#93500000000
1!
b1111 +
#94000000000
0!
#94500000000
1!
b10000 +
#95000000000
0!
#95500000000
1!
b10001 +
#96000000000
0!
#96500000000
1!
b10010 +
#97000000000
0!
#97500000000
1!
b10011 +
#98000000000
0!
#98500000000
1!
b10100 +
#99000000000
0!
#99500000000
1!
b10101 +
#100000000000
0!
#100500000000
1!
b10110 +
#101000000000
0!
#101500000000
1!
b10111 +
#102000000000
0!
#102500000000
1!
b11000 +
#103000000000
0!
#103500000000
1!
b11001 +
#104000000000
0!
#104500000000
1!
b11010 +
#105000000000
0!
#105500000000
1!
b11011 +
#106000000000
0!
#106500000000
1!
b11100 +
#107000000000
0!
#107500000000
1!
b11101 +
#108000000000
0!
#108500000000
1!
b11110 +
#109000000000
0!
#109500000000
1!
b11111 +
#110000000000
0!
#110500000000
1!
b100000 +
#111000000000
0!
#111500000000
1!
b100001 +
#112000000000
0!
#112500000000
1!
b100010 +
#113000000000
0!
#113500000000
1!
b100011 +
#114000000000
0!
#114500000000
1!
b100100 +
#115000000000
0!
#115500000000
1!
b100101 +
#116000000000
0!
#116500000000
1!
b100110 +
#117000000000
0!
#117500000000
1!
b100111 +
#118000000000
0!
#118500000000
1!
b101000 +
#119000000000
0!
#119500000000
1!
b101001 +
#120000000000
0!
#120500000000
1!
b101010 +
#121000000000
0!
#121500000000
1!
b101011 +
#122000000000
0!
#122500000000
1!
b101100 +
#123000000000
0!
#123500000000
1!
b101101 +
#124000000000
0!
#124500000000
1!
b101110 +
#125000000000
0!
#125500000000
1!
b101111 +
#126000000000
0!
#126500000000
1!
b110000 +
#127000000000
0!
#127500000000
1!
b110001 +
#128000000000
0!
#128500000000
1!
b110010 +
#129000000000
0!
#129500000000
1!
b110011 +
sDOOR_CLOSING/6 '
b101 -
00
11
#130000000000
0!
#130500000000
1!
#131000000000
0!
#131500000000
1!
#132000000000
0!
#132500000000
1!
#133000000000
0!
#133500000000
1!
#134000000000
0!
#134500000000
1!
#135000000000
0!
#135500000000
1!
#136000000000
0!
#136500000000
1!
#137000000000
0!
#137500000000
1!
#138000000000
0!
#138500000000
1!
#139000000000
0!
#139500000000
1!
0*
#140000000000
0!
#140500000000
1!
sIDLE/0 '
b0 -
01
#141000000000
0!
#141500000000
1!
#142000000000
0!
#142500000000
1!
b1000 %
#143000000000
0!
#143500000000
1!
b1000 &
#144000000000
0!
#144500000000
1!
sMOVING_UP/3 '
b11 )
b1 -
1.
b0 %
#145000000000
0!
#145500000000
1!
1(
#146000000000
0!
#146500000000
1!
sEMERGENCY/1 '
b0 &
b110 -
0.
10
#147000000000
0!
#147500000000
1!
0(
#148000000000
0!
#148500000000
1!
sIDLE/0 '
b0 -
00
