elevator-amaranth/elevator_amaranth_clean.vcd
$version Generated by VerilatedVcd $end
$timescale 1ps $end
 $scope module TOP $end
  $var wire 1 : clk $end
  $var wire 2 ; current_floor [1:0] $end
  $var wire 4 < current_floor_sensor [3:0] $end
  $var wire 1 = door_close $end
  $var wire 1 > door_open $end
  $var wire 1 ? door_sensor $end
  $var wire 1 @ emergency $end
  $var wire 4 A floor_request [3:0] $end
  $var wire 1 B motor_down $end
  $var wire 1 C motor_up $end
  $var wire 1 D overload $end
  $var wire 1 E rst $end
  $scope module top $end
   $var wire 1 Y $auto$verilog_backend.cc:2355:dump_module$1 $end
   $var wire 1 ( $1 $end
   $var wire 1 F $10 $end
   $var wire 1 G $11 $end
   $var wire 1 H $12 $end
   $var wire 1 I $13 $end
   $var wire 1 J $14 $end
   $var wire 1 Y $15 $end
   $var wire 1 Y $16 $end
   $var wire 1 K $17 $end
   $var wire 1 L $18 $end
   $var wire 1 M $19 $end
   $var wire 1 ) $2 $end
   $var wire 1 N $20 $end
   $var wire 1 O $21 $end
   $var wire 1 P $22 $end
   $var wire 1 Y $23 $end
   $var wire 1 Y $24 $end
   $var wire 1 Q $25 $end
   $var wire 1 ) $26 $end
   $var wire 1 * $27 $end
   $var wire 4 R $28 [3:0] $end
   $var wire 4 S $29 [3:0] $end
   $var wire 3 T $3 [2:0] $end
   $var wire 4 + $30 [3:0] $end
   $var wire 1 Q $31 $end
   $var wire 1 ) $32 $end
   $var wire 1 * $33 $end
   $var wire 4 R $34 [3:0] $end
   $var wire 4 S $35 [3:0] $end
   $var wire 4 + $36 [3:0] $end
   $var wire 25 , $37 [24:0] $end
   $var wire 1 - $38 $end
   $var wire 1 U $39 $end
   $var wire 4 . $4 [3:0] $end
   $var wire 1 V $40 $end
   $var wire 1 U $41 $end
   $var wire 1 W $42 $end
   $var wire 1 / $43 $end
   $var wire 1 0 $44 $end
   $var wire 1 1 $45 $end
   $var wire 1 2 $46 $end
   $var wire 1 3 $47 $end
   $var wire 2 # $48 [1:0] $end
   $var wire 4 $ $49 [3:0] $end
   $var wire 1 4 $5 $end
   $var wire 3 % $50 [2:0] $end
   $var wire 2 & $51 [1:0] $end
   $var wire 24 ' $52 [23:0] $end
   $var wire 4 R $6 [3:0] $end
   $var wire 4 S $7 [3:0] $end
   $var wire 4 + $8 [3:0] $end
   $var wire 1 X $9 $end
   $var wire 1 : clk $end
   $var wire 2 ; current_floor [1:0] $end
   $var wire 2 ; current_floor$12 [1:0] $end
   $var wire 4 < current_floor_sensor [3:0] $end
   $var wire 3 5 current_state [2:0] $end
   $var wire 1 = door_close $end
   $var wire 1 > door_open $end
   $var wire 1 ? door_sensor $end
   $var wire 24 6 door_timer [23:0] $end
   $var wire 1 @ emergency $end
   $var wire 4 A floor_request [3:0] $end
   $var wire 3 7 fsm_state [2:0] $end
   $var wire 1 B motor_down $end
   $var wire 1 C motor_up $end
   $var wire 1 D overload $end
   $var wire 4 8 request_queue [3:0] $end
   $var wire 1 E rst $end
   $var wire 2 9 target_floor [1:0] $end
  $upscope $end
 $upscope $end
$enddefinitions $end


#0
b00 #
b0000 $
b000 %
b00 &
b000000000000000000000000 '
0(
0)
1*
b0000 +
b0000000000000000000000001 ,
0-
b0000 .
0/
10
01
02
03
04
b000 5
b000000000000000000000000 6
b000 7
b0000 8
b00 9
0:
b00 ;
b0001 <
0=
0>
0?
0@
b0000 A
0B
0C
0D
1E
0F
1G
0H
1I
0J
0K
0L
0M
0N
0O
0P
1Q
b0001 R
b1110 S
b001 T
1U
1V
1W
1X
0Y
#1
1:
#2
0:
#3
1:
#4
0:
#5
1:
#6
0:
#7
1:
#8
0:
#9
1:
#10
0:
0E
#11
1:
#12
0:
#13
1:
#14
0:
#15
1:
#16
b1000 $
0:
b1000 A
#17
b011 %
b11 &
1(
b1000 +
b0100 .
14
b1000 8
1:
1F
#18
0:
#19
0*
00
b001 5
b011 7
b11 9
1:
1C
0Q
#20
0:
#21
1:
#22
0:
b0000 A
#23
1:
#24
0:
#25
1:
#26
b11 #
0:
b1000 <
#27
b0000 $
b010 %
1)
1*
b0000 +
b0000 .
04
1:
b11 ;
0F
0G
0I
1K
1M
1O
1Q
b1000 R
b0111 S
b100 T
0X
#28
0:
#29
0(
0)
1/
12
b011 5
b010 7
b0000 8
1:
1>
0C
#30
0:
#31
1:
#32
b101 %
0:
1?
0U
0W
#33
b000000000000000000000001 '
02
13
b100 5
b101 7
1:
#34
0:
#35
b000000000000000000000010 '
b0000000000000000000000010 ,
b000000000000000000000001 6
1:
#36
0:
#37
b000000000000000000000011 '
b0000000000000000000000011 ,
b000000000000000000000010 6
1:
#38
0:
#39
b000000000000000000000100 '
b0000000000000000000000100 ,
b000000000000000000000011 6
1:
#40
0:
#41
b000000000000000000000101 '
b0000000000000000000000101 ,
b000000000000000000000100 6
1:
#42
0:
#43
b000000000000000000000110 '
b0000000000000000000000110 ,
b000000000000000000000101 6
1:
#44
0:
#45
b000000000000000000000111 '
b0000000000000000000000111 ,
b000000000000000000000110 6
1:
#46
0:
#47
b000000000000000000001000 '
b0000000000000000000001000 ,
b000000000000000000000111 6
1:
#48
0:
#49
b000000000000000000001001 '
b0000000000000000000001001 ,
b000000000000000000001000 6
1:
#50
0:
#51
b000000000000000000001010 '
b0000000000000000000001010 ,
b000000000000000000001001 6
1:
#52
0:
#53
b000000000000000000001011 '
b0000000000000000000001011 ,
b000000000000000000001010 6
1:
#54
0:
#55
b000000000000000000001100 '
b0000000000000000000001100 ,
b000000000000000000001011 6
1:
#56
0:
#57
b000000000000000000001101 '
b0000000000000000000001101 ,
b000000000000000000001100 6
1:
#58
0:
#59
b000000000000000000001110 '
b0000000000000000000001110 ,
b000000000000000000001101 6
1:
#60
0:
#61
b000000000000000000001111 '
b0000000000000000000001111 ,
b000000000000000000001110 6
1:
#62
0:
#63
b000000000000000000010000 '
b0000000000000000000010000 ,
b000000000000000000001111 6
1:
#64
0:
#65
b000000000000000000010001 '
b0000000000000000000010001 ,
b000000000000000000010000 6
1:
#66
0:
#67
b000000000000000000010010 '
b0000000000000000000010010 ,
b000000000000000000010001 6
1:
#68
0:
#69
b000000000000000000010011 '
b0000000000000000000010011 ,
b000000000000000000010010 6
1:
#70
0:
#71
b000000000000000000010100 '
b0000000000000000000010100 ,
b000000000000000000010011 6
1:
#72
0:
#73
b000000000000000000010101 '
b0000000000000000000010101 ,
b000000000000000000010100 6
1:
#74
0:
#75
b000000000000000000010110 '
b0000000000000000000010110 ,
b000000000000000000010101 6
1:
#76
0:
#77
b000000000000000000010111 '
b0000000000000000000010111 ,
b000000000000000000010110 6
1:
#78
0:
#79
b000000000000000000011000 '
b0000000000000000000011000 ,
b000000000000000000010111 6
1:
#80
0:
#81
b000000000000000000011001 '
b0000000000000000000011001 ,
b000000000000000000011000 6
1:
#82
0:
#83
b000000000000000000011010 '
b0000000000000000000011010 ,
b000000000000000000011001 6
1:
#84
0:
#85
b000000000000000000011011 '
b0000000000000000000011011 ,
b000000000000000000011010 6
1:
#86
0:
#87
b000000000000000000011100 '
b0000000000000000000011100 ,
b000000000000000000011011 6
1:
#88
0:
#89
b000000000000000000011101 '
b0000000000000000000011101 ,
b000000000000000000011100 6
1:
#90
0:
#91
b000000000000000000011110 '
b0000000000000000000011110 ,
b000000000000000000011101 6
1:
#92
0:
#93
b000000000000000000011111 '
b0000000000000000000011111 ,
b000000000000000000011110 6
1:
#94
0:
#95
b000000000000000000100000 '
b0000000000000000000100000 ,
b000000000000000000011111 6
1:
#96
0:
#97
b000000000000000000100001 '
b0000000000000000000100001 ,
b000000000000000000100000 6
1:
#98
0:
#99
b000000000000000000100010 '
b0000000000000000000100010 ,
b000000000000000000100001 6
1:
#100
0:
#101
b000000000000000000100011 '
b0000000000000000000100011 ,
b000000000000000000100010 6
1:
#102
0:
#103
b000000000000000000100100 '
b0000000000000000000100100 ,
b000000000000000000100011 6
1:
#104
0:
#105
b000000000000000000100101 '
b0000000000000000000100101 ,
b000000000000000000100100 6
1:
#106
0:
#107
b000000000000000000100110 '
b0000000000000000000100110 ,
b000000000000000000100101 6
1:
#108
0:
#109
b000000000000000000100111 '
b0000000000000000000100111 ,
b000000000000000000100110 6
1:
#110
0:
#111
b000000000000000000101000 '
b0000000000000000000101000 ,
b000000000000000000100111 6
1:
#112
0:
#113
b000000000000000000101001 '
b0000000000000000000101001 ,
b000000000000000000101000 6
1:
#114
0:
#115
b000000000000000000101010 '
b0000000000000000000101010 ,
b000000000000000000101001 6
1:
#116
0:
#117
b000000000000000000101011 '
b0000000000000000000101011 ,
b000000000000000000101010 6
1:
#118
0:
#119
b000000000000000000101100 '
b0000000000000000000101100 ,
b000000000000000000101011 6
1:
#120
0:
#121
b000000000000000000101101 '
b0000000000000000000101101 ,
b000000000000000000101100 6
1:
#122
0:
#123
b000000000000000000101110 '
b0000000000000000000101110 ,
b000000000000000000101101 6
1:
#124
0:
#125
b000000000000000000101111 '
b0000000000000000000101111 ,
b000000000000000000101110 6
1:
#126
0:
#127
b000000000000000000110000 '
b0000000000000000000110000 ,
b000000000000000000101111 6
1:
#128
0:
#129
b000000000000000000110001 '
b0000000000000000000110001 ,
b000000000000000000110000 6
1:
#130
0:
#131
b000000000000000000110010 '
b0000000000000000000110010 ,
b000000000000000000110001 6
1:
#132
0:
#133
b110 %
b000000000000000000110011 '
b0000000000000000000110011 ,
1-
b000000000000000000110010 6
1:
#134
0:
#135
b0000000000000000000110100 ,
0/
03
b101 5
b000000000000000000110011 6
b110 7
1:
1=
0>
#136
0:
#137
1:
#138
0:
#139
1:
#140
0:
#141
1:
#142
0:
#143
1:
#144
0:
#145
1:
#146
0:
#147
1:
#148
0:
#149
1:
#150
0:
#151
1:
#152
0:
#153
1:
#154
0:
#155
1:
#156
b000 %
0:
0?
1U
1W
#157
10
b000 5
b000 7
1:
0=
#158
b0010 $
0:
b0010 A
#159
b100 %
b01 &
1(
b0010 +
b0010 8
1:
1N
#160
0:
#161
0*
00
b010 5
b100 7
b01 9
1:
1B
0Q
#162
0:
#163
1:
#164
0:
#165
1:
#166
0:
#167
1:
#168
0:
b0000 A
#169
1:
#170
0:
#171
1:
#172
0:
#173
1:
#174
0:
#175
1:
#176
0:
#177
1:
#178
b01 #
0:
b0010 <
#179
b0000 $
b010 %
1)
1*
b0000 +
1:
b01 ;
1G
0M
0N
0O
1Q
b0010 R
b1101 S
b010 T
1X
#180
0:
#181
0(
0)
1/
12
b011 5
b010 7
b0000 8
1:
1>
0B
#182
0:
#183
1:
#184
b101 %
b000000000000000000000000 '
0:
1?
0U
0W
#185
b000000000000000000000001 '
b0000000000000000000000001 ,
0-
02
13
b100 5
b000000000000000000000000 6
b101 7
1:
#186
0:
#187
b000000000000000000000010 '
b0000000000000000000000010 ,
b000000000000000000000001 6
1:
#188
0:
#189
b000000000000000000000011 '
b0000000000000000000000011 ,
b000000000000000000000010 6
1:
#190
0:
#191
b000000000000000000000100 '
b0000000000000000000000100 ,
b000000000000000000000011 6
1:
#192
0:
#193
b000000000000000000000101 '
b0000000000000000000000101 ,
b000000000000000000000100 6
1:
#194
0:
#195
b000000000000000000000110 '
b0000000000000000000000110 ,
b000000000000000000000101 6
1:
#196
0:
#197
b000000000000000000000111 '
b0000000000000000000000111 ,
b000000000000000000000110 6
1:
#198
0:
#199
b000000000000000000001000 '
b0000000000000000000001000 ,
b000000000000000000000111 6
1:
#200
0:
#201
b000000000000000000001001 '
b0000000000000000000001001 ,
b000000000000000000001000 6
1:
#202
0:
#203
b000000000000000000001010 '
b0000000000000000000001010 ,
b000000000000000000001001 6
1:
#204
0:
#205
b000000000000000000001011 '
b0000000000000000000001011 ,
b000000000000000000001010 6
1:
#206
0:
#207
b000000000000000000001100 '
b0000000000000000000001100 ,
b000000000000000000001011 6
1:
#208
0:
#209
b000000000000000000001101 '
b0000000000000000000001101 ,
b000000000000000000001100 6
1:
#210
0:
#211
b000000000000000000001110 '
b0000000000000000000001110 ,
b000000000000000000001101 6
1:
#212
0:
#213
b000000000000000000001111 '
b0000000000000000000001111 ,
b000000000000000000001110 6
1:
#214
0:
#215
b000000000000000000010000 '
b0000000000000000000010000 ,
b000000000000000000001111 6
1:
#216
0:
#217
b000000000000000000010001 '
b0000000000000000000010001 ,
b000000000000000000010000 6
1:
#218
0:
#219
b000000000000000000010010 '
b0000000000000000000010010 ,
b000000000000000000010001 6
1:
#220
0:
#221
b000000000000000000010011 '
b0000000000000000000010011 ,
b000000000000000000010010 6
1:
#222
0:
#223
b000000000000000000010100 '
b0000000000000000000010100 ,
b000000000000000000010011 6
1:
#224
0:
#225
b000000000000000000010101 '
b0000000000000000000010101 ,
b000000000000000000010100 6
1:
#226
0:
#227
b000000000000000000010110 '
b0000000000000000000010110 ,
b000000000000000000010101 6
1:
#228
0:
#229
b000000000000000000010111 '
b0000000000000000000010111 ,
b000000000000000000010110 6
1:
#230
0:
#231
b000000000000000000011000 '
b0000000000000000000011000 ,
b000000000000000000010111 6
1:
#232
0:
#233
b000000000000000000011001 '
b0000000000000000000011001 ,
b000000000000000000011000 6
1:
#234
0:
#235
b000000000000000000011010 '
b0000000000000000000011010 ,
b000000000000000000011001 6
1:
#236
0:
#237
b000000000000000000011011 '
b0000000000000000000011011 ,
b000000000000000000011010 6
1:
#238
0:
#239
b000000000000000000011100 '
b0000000000000000000011100 ,
b000000000000000000011011 6
1:
#240
0:
#241
b000000000000000000011101 '
b0000000000000000000011101 ,
b000000000000000000011100 6
1:
#242
0:
#243
b000000000000000000011110 '
b0000000000000000000011110 ,
b000000000000000000011101 6
1:
#244
0:
#245
b000000000000000000011111 '
b0000000000000000000011111 ,
b000000000000000000011110 6
1:
#246
0:
#247
b000000000000000000100000 '
b0000000000000000000100000 ,
b000000000000000000011111 6
1:
#248
0:
#249
b000000000000000000100001 '
b0000000000000000000100001 ,
b000000000000000000100000 6
1:
#250
0:
#251
b000000000000000000100010 '
b0000000000000000000100010 ,
b000000000000000000100001 6
1:
#252
0:
#253
b000000000000000000100011 '
b0000000000000000000100011 ,
b000000000000000000100010 6
1:
#254
0:
#255
b000000000000000000100100 '
b0000000000000000000100100 ,
b000000000000000000100011 6
1:
#256
0:
#257
b000000000000000000100101 '
b0000000000000000000100101 ,
b000000000000000000100100 6
1:
#258
0:
#259
b000000000000000000100110 '
b0000000000000000000100110 ,
b000000000000000000100101 6
1:
#260
0:
#261
b000000000000000000100111 '
b0000000000000000000100111 ,
b000000000000000000100110 6
1:
#262
0:
#263
b000000000000000000101000 '
b0000000000000000000101000 ,
b000000000000000000100111 6
1:
#264
0:
#265
b000000000000000000101001 '
b0000000000000000000101001 ,
b000000000000000000101000 6
1:
#266
0:
#267
b000000000000000000101010 '
b0000000000000000000101010 ,
b000000000000000000101001 6
1:
#268
0:
#269
b000000000000000000101011 '
b0000000000000000000101011 ,
b000000000000000000101010 6
1:
#270
0:
#271
b000000000000000000101100 '
b0000000000000000000101100 ,
b000000000000000000101011 6
1:
#272
0:
#273
b000000000000000000101101 '
b0000000000000000000101101 ,
b000000000000000000101100 6
1:
#274
0:
#275
b000000000000000000101110 '
b0000000000000000000101110 ,
b000000000000000000101101 6
1:
#276
0:
#277
b000000000000000000101111 '
b0000000000000000000101111 ,
b000000000000000000101110 6
1:
#278
0:
#279
b000000000000000000110000 '
b0000000000000000000110000 ,
b000000000000000000101111 6
1:
#280
0:
#281
b000000000000000000110001 '
b0000000000000000000110001 ,
b000000000000000000110000 6
1:
#282
0:
#283
b000000000000000000110010 '
b0000000000000000000110010 ,
b000000000000000000110001 6
1:
#284
0:
#285
b110 %
b000000000000000000110011 '
b0000000000000000000110011 ,
1-
b000000000000000000110010 6
1:
#286
0:
#287
b0000000000000000000110100 ,
0/
03
b101 5
b000000000000000000110011 6
b110 7
1:
1=
0>
#288
0:
#289
1:
#290
0:
#291
1:
#292
0:
#293
1:
#294
0:
#295
1:
#296
0:
#297
1:
#298
0:
#299
1:
#300
0:
#301
1:
#302
0:
#303
1:
#304
0:
#305
1:
#306
0:
#307
1:
#308
b000 %
0:
0?
1U
1W
#309
10
b000 5
b000 7
1:
0=
#310
b1000 $
0:
b1000 A
#311
b011 %
b11 &
1(
b1000 +
b0010 .
14
b1000 8
1:
1F
#312
0:
#313
0*
00
b001 5
b011 7
b11 9
1:
1C
0Q
#314
0:
#315
1:
#316
0:
b0000 A
#317
1:
#318
0:
#319
1:
#320
b0000 $
b001 %
0:
1@
0V
0W
#321
0(
b0000 +
b0000 .
11
04
b110 5
b001 7
b0000 8
1:
1>
0C
0F
#322
0:
#323
1:
#324
0:
#325
1:
#326
b000 %
0:
0@
1V
1W
#327
10
01
b000 5
b000 7
1:
0>
